{
  "project_info": {
    "project_number": "804481471172",
    "firebase_url": "https://gdi-coins-app.firebaseio.com",
    "project_id": "gdi-coins-app",
    "storage_bucket": "gdi-coins-app.appspot.com"
  },
  "client": [
    {
      "client_info": {
        "mobilesdk_app_id": "1:804481471172:android:b009d5179404c6704a2f91",
        "android_client_info": {
          "package_name": "hr.ferit.android.modric.cryptocurrency"
        }
      },
      "oauth_client": [
        {
          "client_id": "804481471172-r9325eqgtidq3sfp9tjsbfvupc0pcber.apps.googleusercontent.com",
          "client_type": 1,
          "android_info": {
            "package_name": "hr.ferit.android.modric.cryptocurrency",
            "certificate_hash": "3596e25da5716749847a1ba54ef376e9a370298f"
          }
        },
        {
          "client_id": "804481471172-dursg1qucobb6738uavk593teobve831.apps.googleusercontent.com",
          "client_type": 3
        }
      ],
      "api_key": [
        {
          "current_key": "AIzaSyBVkD9g2ibLsgtvtcfVGQeq1Nf2D-NDQsU"
        }
      ],
      "services": {
        "appinvite_service": {
          "other_platform_oauth_client": [
            {
              "client_id": "804481471172-dursg1qucobb6738uavk593teobve831.apps.googleusercontent.com",
              "client_type": 3
            }
          ]
        }
      }
    }
  ],
  "configuration_version": "1"
}